…
ny_noaa_clean %>% 
  group_by(snow) %>% 
  summarize(n = n()) %>% 
  arrange(desc(n))
```

    ## # A tibble: 280 x 2
    ##     snow       n
    ##    <int>   <int>
    ##  1     0 2008508
    ##  2    25   31022
    ##  3    13   23095
    ##  4    51   18274
    ##  5    76   10173
    ##  6     8    9962
    ##  7     5    9748
    ##  8    38    9197
    ##  9     3    8790
    ## 10   102    6552
    ## # ... with 270 more rows
…
